{
    "target" : "RobotToolTemplate.bin",
    "platform" : "X86_64",
    "compiler" : "/usr/bin/g++",
    "buildPath" : "./build",
    "debugger" : "/usr/bin/gdb",
    "buildOptions" : ["-pipe","-g","-std=gnu++11","-W","-fPIC"],
    "sourcesPaths" : [
        "../SpecialK/LibSkFlat",
        "../SpecialK/LibSkCore"
    ],
    "includeOptPaths" : [],
    "dynamicDeps" : [],

    "defines" : [
        "-DENABLE_SKAPP",
        "-DSPECIALK_APPLICATION",
        "-DENABLE_AES",
        "-DENABLE_XML",
        "-DENABLE_HTTP",
        "-DENABLE_SSL"
    ],

    "libs" : [
        "-lpthread",
        "-lm",
        "-lz",
        "-lssl",
        "-lcrypto"
    ]
}
